<?xml version="1.0" encoding="UTF-8" standalone="no"?>
<!-- Created with Inkscape (http://www.inkscape.org/) -->

<svg
   width="40mm"
   height="39.999996mm"
   viewBox="0 0 40 39.999996"
   version="1.1"
   id="svg1"
   inkscape:version="1.3 (0e150ed, 2023-07-21)"
   sodipodi:docname="hexWalls_flat.svg"
   xmlns:inkscape="http://www.inkscape.org/namespaces/inkscape"
   xmlns:sodipodi="http://sodipodi.sourceforge.net/DTD/sodipodi-0.dtd"
   xmlns="http://www.w3.org/2000/svg"
   xmlns:svg="http://www.w3.org/2000/svg">
  <sodipodi:namedview
     id="namedview1"
     pagecolor="#ffffff"
     bordercolor="#666666"
     borderopacity="1.0"
     inkscape:showpageshadow="2"
     inkscape:pageopacity="0.0"
     inkscape:pagecheckerboard="0"
     inkscape:deskcolor="#d1d1d1"
     inkscape:document-units="mm"
     showgrid="true"
     inkscape:zoom="1.9742972"
     inkscape:cx="55.20952"
     inkscape:cy="108.13975"
     inkscape:window-width="1264"
     inkscape:window-height="787"
     inkscape:window-x="0"
     inkscape:window-y="25"
     inkscape:window-maximized="0"
     inkscape:current-layer="layer1">
    <inkscape:grid
       id="grid1"
       units="mm"
       originx="0"
       originy="0"
       spacingx="9.9999997"
       spacingy="10"
       empcolor="#0099e5"
       empopacity="0.30196078"
       color="#0099e5"
       opacity="0.14901961"
       empspacing="5"
       dotted="false"
       gridanglex="30"
       gridanglez="30"
       visible="true" />
  </sodipodi:namedview>
  <defs
     id="defs1" />
  <g
     inkscape:label="Layer 1"
     inkscape:groupmode="layer"
     id="layer1"
     transform="translate(-90.000008,-120)">
    <path
       sodipodi:type="star"
       style="fill:#cccccc;fill-rule:evenodd;stroke-width:0.264583"
       id="path1"
       inkscape:flatsided="true"
       sodipodi:sides="6"
       sodipodi:cx="100"
       sodipodi:cy="140"
       sodipodi:r1="10"
       sodipodi:r2="8.6602535"
       sodipodi:arg1="1.5707963"
       sodipodi:arg2="2.0943951"
       inkscape:rounded="0"
       inkscape:randomized="0"
       d="m 100,150 -8.660254,-5 0,-10 8.660254,-5 8.66025,5 0,10 z"
       inkscape:transform-center-x="1.2598425e-06"
       inkscape:transform-center-y="-1.7637795e-06" />
    <path
       sodipodi:type="star"
       style="fill:#ff7f2a;fill-rule:evenodd;stroke-width:0.264583"
       id="path2"
       inkscape:flatsided="true"
       sodipodi:sides="6"
       sodipodi:cx="100"
       sodipodi:cy="140"
       sodipodi:r1="10"
       sodipodi:r2="8.6602535"
       sodipodi:arg1="1.5707963"
       sodipodi:arg2="2.0943951"
       inkscape:rounded="0"
       inkscape:randomized="0"
       d="m 100,150 -8.660254,-5 0,-10 8.660254,-5 8.66025,5 0,10 z"
       inkscape:transform-center-x="1.2598425e-06"
       inkscape:transform-center-y="-1.7637795e-06"
       transform="translate(20.000002)" />
  </g>
</svg>
