<?xml version="1.0" encoding="UTF-8" standalone="no"?>
<!-- Created with Inkscape (http://www.inkscape.org/) -->
<svg xmlns:dc="http://purl.org/dc/elements/1.1/" xmlns:cc="http://creativecommons.org/ns#" xmlns:rdf="http://www.w3.org/1999/02/22-rdf-syntax-ns#" xmlns:svg="http://www.w3.org/2000/svg" xmlns="http://www.w3.org/2000/svg" xmlns:sodipodi="http://sodipodi.sourceforge.net/DTD/sodipodi-0.dtd" xmlns:inkscape="http://www.inkscape.org/namespaces/inkscape" width="110" height="103.517" id="svg3299" version="1.1" inkscape:version="0.48.5 r10040" sodipodi:docname="New document 2">
  <defs id="defs3301"/>
  <sodipodi:namedview id="base" pagecolor="#ffffff" bordercolor="#666666" borderopacity="1.0" inkscape:pageopacity="0.0" inkscape:pageshadow="2" inkscape:zoom="7.8827633" inkscape:cx="55" inkscape:cy="51.758499" inkscape:document-units="px" inkscape:current-layer="layer1" showgrid="false" fit-margin-top="5" fit-margin-left="5" fit-margin-right="5" fit-margin-bottom="5"/>
  <metadata id="metadata3304">
    <rdf:RDF>
      <cc:Work rdf:about="">
        <dc:format>image/svg+xml</dc:format>
        <dc:type rdf:resource="http://purl.org/dc/dcmitype/StillImage"/>
        <dc:title/>
      </cc:Work>
    </rdf:RDF>
  </metadata>
  <g inkscape:label="Layer 1" inkscape:groupmode="layer" id="layer1" transform="translate(223.57143,-852.03225)">
    <path sodipodi:nodetypes="csccsssccscccccccccccccccccccccccccccccccc" id="path9190" d="m -143.10983,865.69105 c -3.346,-0.049 -6.7072,1.2012 -9.2604,3.7543 -4.1093,4.1093 -4.8466,10.313 -2.2154,15.1755 l -33.1536,33.1536 c -4.8626,-2.6314 -11.0661,-1.894 -15.1755,2.2154 -5.0104,5.0104 -5.0104,13.1338 0,18.1442 5.0104,5.0103 13.1338,5.0104 18.1442,0 4.1094,-4.1094 4.8468,-10.313 2.2153,-15.1755 l 33.1537,-33.1536 c 4.8624,2.6312 11.0661,1.8939 15.1755,-2.2154 2.5002,-2.5003 3.7513,-5.7756 3.7556,-9.0525 -0.1471,-1.6318 0.3016,-2.635 -1.3276,-1.4796 l -9.3779,9.3778 -7.9199,-2.1202 -2.1202,-7.9198 9.3779,-9.3779 c 1.42,-1.4474 -0.066,-1.3047 -1.2717,-1.3263 z m -44.9372,57.5753 0.3523,2.2478 1.7679,1.4276 -0.8182,2.1222 0.8202,2.1202 -1.7719,1.4277 -0.3503,2.2457 -2.2478,0.3524 -1.4256,1.7698 -2.1222,-0.8181 -2.1222,0.8181 -1.4277,-1.7678 -2.2478,-0.3524 -0.3523,-2.2477 -1.7679,-1.4277 0.8181,-2.1222 -0.818,-2.1222 1.7698,-1.4256 0.3524,-2.2478 2.2457,-0.3503 1.4277,-1.7719 2.1201,0.8201 2.1223,-0.8181 1.4276,1.7679 z" style="fill:#000000;stroke:none" inkscape:connector-curvature="0"/>
    <path sodipodi:nodetypes="ccccccccccccccccccccccccccsccccc" id="path9180" d="m -144.82753,927.53465 2.4311,2.4311 -0.8104,0.8104 0.8104,0.8104 0.4862,-0.4862 22.6904,19.4489 0.6484,-0.6483 -19.449,-22.6904 0.4862,-0.4862 -0.8104,-0.8104 -0.8103,0.8104 -2.4312,-2.4312 2.4312,-2.4311 -29.9838,-29.9838 2.4311,-2.4311 -28.363,-28.363 -5.6726,5.6726 -5.6727,-5.6726 2.4312,-2.4311 -1.6208,-1.6208 -6.483,6.483 1.6208,1.6207 2.4311,-2.4311 5.6726,5.6726 -16.2074,16.2075 1.6207,1.6207 c 0.783,-0.7829 1.5282,-1.5781 2.4311,-2.4311 3.7843,-3.5748 9.1053,-7.1211 15.3971,-0.8104 l 19.4489,19.449 2.4312,-2.4311 29.9837,29.9837 z" style="fill:#000000;stroke:none" inkscape:connector-curvature="0"/>
  </g>
</svg>